0;0;0.0;0.0;-15897.07;-144.07358;-108.27415;-45.1389;13276.19;idle;12;0.0;DEFEAT
0;0;0.0;0.0;-15897.07;-144.07358;-108.27415;-45.1389;13276.19;idle;12;0.0;DEFEAT
0;1;0.0;28765.03;-84717.03;-144.08385;-109.76607;-124.12114;17911.805;explore_off;10;0.0;DEFEAT
1;1;27860.28;28765.03;-79868.695;-143.24329;-104.6431;-120.472664;17967.574;explore_off;10;0.56386065;DEFEAT
1;1;27860.28;28765.03;-66784.01;-144.60657;-103.83423;-116.03139;15556.594;shoot;10;0.0;DEFEAT
1;1;27860.28;28765.03;-67958.76;-136.27838;-106.84493;-119.26769;15552.387;follow;8;0.0;DEFEAT
1;1;27860.28;28765.03;-70538.03;-136.46167;-108.622986;-120.39509;16026.875;follow;6;0.0;DEFEAT
1;1;27860.28;28765.03;-74506.77;-133.77626;-108.60445;-121.96503;16850.246;follow;4;0.0;DEFEAT
1;1;27860.28;28765.03;-81689.3;-138.6479;-106.63342;-124.950714;18039.3;follow;4;0.0;DEFEAT
1;1;27860.28;28765.03;-85331.36;-138.78337;-106.86075;-126.18778;18530.785;follow;2;0.0;DEFEAT
1;1;27860.28;28765.03;-86179.15;-136.78426;-107.91388;-125.75833;19290.748;follow;2;0.625607;DEFEAT
1;1;27860.28;28765.03;-72648.41;-138.28235;-102.82306;-121.09828;15685.773;follow;2;0.0;DEFEAT
1;1;27860.28;28765.03;-85264.41;-145.28178;-109.40382;-126.36371;18303.34;follow;2;0.0;DEFEAT
