2;2;56873.188;62203.74;-70740.516;-138.31519;-107.88029;-121.51253;18515.062;explore_off;12;0.0;DEFEAT
2;2;56873.188;62203.74;-66714.63;-137.19751;-110.95982;-120.39584;18406.2;explore_off;12;0.04983156;DEFEAT
2;2;56873.188;62203.74;-85029.76;-140.11693;-111.422424;-129.11295;17327.865;follow;12;0.0;DEFEAT
2;2;56873.188;62203.74;-86194.766;-140.58318;-114.62843;-129.26007;17142.203;shoot;12;0.0;DEFEAT
2;2;56873.188;62203.74;-92221.586;-140.35242;-112.65105;-130.56549;18519.55;follow;12;0.6490419;DEFEAT
2;2;56873.188;62203.74;-93839.9;-140.55122;-112.081024;-130.70375;19144.016;shoot;12;0.63709015;DEFEAT
2;2;56873.188;62203.74;-99717.016;-135.07478;-110.09955;-129.94374;21034.05;follow;12;0.0;DEFEAT
2;2;56873.188;62203.74;-93532.24;-135.04065;-115.78674;-128.2581;20267.238;follow;12;0.5890027;DEFEAT
2;2;56873.188;62203.74;-48068.023;-145.20844;-105.57741;-114.89435;17570.217;follow;12;0.0;DEFEAT
2;2;56873.188;62203.74;-59743.496;-144.83449;-114.5056;-119.95729;18759.355;follow;10;0.0;DEFEAT
2;2;56873.188;62203.74;-59743.496;-144.83449;-114.5056;-119.95729;18759.355;follow;10;0.0;DEFEAT
