0;0;0.0;0.0;-17089.148;-142.63808;-107.64034;-48.75001;12766.88;idle;12;0.0;DEFEAT
0;1;0.0;27967.498;-89238.734;-137.56976;-109.84996;-126.08122;18390.479;explore_off;10;0.0;DEFEAT
1;1;27200.7;27967.498;-73067.93;-137.38074;-106.15185;-124.224815;17673.8;explore_off;10;0.0;DEFEAT
1;1;27200.7;27967.498;-51191.758;-134.8083;-107.60569;-110.29803;17667.934;explore_off;8;0.0;DEFEAT
2;2;54978.61;55152.57;-98819.79;-144.87206;-114.289734;-133.8609;16661.617;explore_off;6;0.0;DEFEAT
2;2;54978.61;55152.57;-101169.266;-144.97604;-115.98895;-134.21832;17561.293;explore_off;6;0.3844819;DEFEAT
2;2;54978.61;55152.57;-98846.766;-144.53317;-109.87398;-131.53564;17542.922;explore_off;6;0.3234567;DEFEAT
2;2;54978.61;55152.57;-100828.875;-145.03033;-111.92794;-135.08186;17171.23;shoot;6;0.47891206;DEFEAT
2;2;54978.61;55152.57;-102344.3;-145.04149;-114.320145;-135.0136;17133.002;follow;6;0.0;DEFEAT
2;2;54978.61;55152.57;-101618.9;-144.5013;-113.80589;-133.93925;17450.129;follow;6;0.6080617;DEFEAT
2;2;54978.61;55152.57;-100851.17;-144.59827;-105.546265;-132.49919;18042.504;shoot;6;0.5689432;DEFEAT
2;2;54978.61;55152.57;-52020.254;-140.143;-107.771255;-111.37363;17222.56;follow;6;0.0;DEFEAT
2;2;54978.61;55152.57;-53078.11;-139.82007;-108.32166;-112.11959;18082.344;follow;4;0.0;DEFEAT
2;2;54978.61;55152.57;-51349.848;-140.89465;-108.646416;-110.97978;17728.707;follow;4;0.66748327;DEFEAT
2;2;54978.61;55152.57;-51349.848;-140.89465;-108.646416;-110.97978;17728.707;follow;4;0.66748327;DEFEAT
2;2;54978.61;55152.57;-49778.258;-131.45152;-109.1865;-109.28538;16831.957;shoot;2;0.0;DEFEAT
