0;0;0.0;0.0;-15994.999;-144.88264;-105.727295;-52.50001;14035.443;idle;12;0.0;DEFEAT
0;0;0.0;0.0;-65163.715;-137.25818;-100.42796;-114.98488;15912.742;explore_def;10;0.0;DEFEAT
0;0;0.0;0.0;-96106.51;-138.12369;-110.37089;-123.2092;20218.926;explore_def;10;0.669661;DEFEAT
0;0;0.0;0.0;-93516.0;-135.02177;-109.82764;-121.44069;20516.219;explore_def;10;0.0;DEFEAT
0;0;0.0;0.0;-91030.07;-134.79124;-106.374435;-120.9157;20396.715;explore_def;10;0.64630383;DEFEAT
0;0;0.0;0.0;-88679.6;-134.95049;-105.66005;-120.20281;20277.582;explore_def;10;0.0;DEFEAT
0;0;0.0;0.0;-92977.2;-138.33598;-111.10697;-125.49107;18540.902;explore_def;8;0.0;DEFEAT
0;1;0.0;28514.244;-100655.92;-138.988;-112.28045;-128.85396;19241.191;explore_def;8;0.6702842;DEFEAT
0;1;0.0;28514.244;-105987.47;-139.179;-110.827545;-130.55215;19851.684;explore_def;8;0.6208703;DEFEAT
0;1;0.0;28514.244;-107103.86;-138.91373;-111.153625;-130.10669;20163.293;shoot;8;0.6128769;DEFEAT
0;1;0.0;28514.244;-86807.86;-138.36847;-106.93862;-123.16914;17927.586;shoot;8;0.6349445;DEFEAT
0;1;0.0;28514.244;-77936.87;-138.91092;-108.13915;-121.89534;15441.178;follow;8;0.0;DEFEAT
0;1;0.0;28514.244;-95067.55;-137.5085;-110.5311;-129.10976;18331.838;shoot;8;0.0;DEFEAT
0;1;0.0;28514.244;-78908.51;-138.33508;-102.3347;-119.65614;17054.145;shoot;8;0.0;DEFEAT
0;1;0.0;28514.244;-50453.285;-135.61816;-104.50434;-111.527725;18511.074;shoot;8;0.0;DEFEAT
0;1;0.0;28514.244;-57581.83;-137.24565;-102.3642;-113.9906;18820.97;follow;8;0.6792381;DEFEAT
0;1;0.0;28514.244;-72160.2;-136.67363;-109.26426;-118.91322;20173.096;shoot;8;0.70402914;DEFEAT
