@relation duel.situation

@attribute 'offSize' numeric
@attribute 'defSize' numeric
@attribute 'offValue' numeric
@attribute 'defValue' numeric
@attribute 'averageAltitude' numeric
@attribute 'minAltitude' numeric
@attribute 'maxAltitude' numeric
@attribute 'currentAltitude' numeric
@attribute 'fovValue' numeric
@attribute 'lastAction' {shoot, follow, explore_off, explore_def}
@attribute 'life' numeric
@attribute 'impactProba' numeric
@attribute 'victory' { VICTORY, DEFEAT}

@data
1,1,26892.09,30214.785,-89556.33,-140.42021,-106.029106,-128.87126,18259.94,follow,10,0.62937355,VICTORY
5,18,146019.75,540571.25,-100664.336,-138.47823,-115.44533,-131.27396,19841.852,shoot,12,0.55574286,VICTORY
15,13,431275.28,393794.9,-74452.52,-131.81642,-111.33825,-123.93257,20313.264,follow,10,0.63546675,VICTORY
1,1,26714.018,28967.152,-104470.33,-139.6699,-110.7851,-135.40549,20263.16,follow,12,0.71106005,VICTORY
31,21,899800.75,612243.0,-69314.0,-129.72296,-106.13848,-121.9201,20035.78,follow,8,0.72184384,VICTORY
29,73,841389.75,2073732.5,-97011.016,-143.33324,-110.32259,-132.44633,18410.629,explore_off,10,0.525854,VICTORY
1,1,27915.197,29278.47,-80001.94,-139.589,-109.01575,-125.92635,17757.574,follow,12,0.52528906,VICTORY
1,1,26486.617,28160.94,-100071.4,-143.99818,-110.59158,-130.78778,19648.895,shoot,2,0.63915485,VICTORY
0,1,0.0,28495.418,-101597.05,-143.039,-113.957825,-132.40234,18816.672,shoot,6,0.60144985,VICTORY
1,1,27529.936,28885.355,-80101.51,-143.59589,-105.575645,-122.78698,17695.045,follow,8,0.5895666,VICTORY
1,1,29962.436,28606.727,-83564.76,-141.39317,-113.89261,-125.18194,17625.104,shoot,6,0.67967075,VICTORY
1,1,30033.29,29707.957,-68670.33,-132.3625,-100.25153,-119.39861,17120.979,follow,10,0.45646423,VICTORY
7,42,202459.47,1237275.4,-75330.25,-141.15907,-111.980225,-122.70391,17272.174,follow,2,0.72249204,VICTORY
5,14,149962.83,392621.06,-106565.08,-144.22733,-111.97853,-134.73294,18300.64,shoot,10,0.5644407,VICTORY
4,15,109547.55,453125.62,-77353.97,-140.1777,-107.36276,-128.7943,18590.246,shoot,10,0.3470051,VICTORY
14,28,395140.12,839191.4,-97732.21,-139.41202,-111.324646,-132.27045,18802.166,explore_off,6,0.41062593,VICTORY
4,2,105630.11,59932.742,-91897.39,-142.45494,-113.45108,-130.6426,18500.549,follow,2,0.0,DEFEAT
1,1,28505.04,28196.059,-77533.77,-140.87291,-108.482735,-124.38603,16751.742,follow,2,0.0,DEFEAT
1,1,22078.24,29888.799,-40560.867,-142.00706,-102.86449,-100.2878,11773.477,explore_off,2,0.0,DEFEAT
0,0,0.0,0.0,-66078.69,-139.73615,-105.150856,-114.990036,17792.082,explore_def,2,0.0,DEFEAT
