8;5;223828.16;148385.12;-86348.81;-139.10812;-107.133415;-124.47148;20765.166;explore_off;12;0.0;DEFEAT
26;5;755321.6;148385.12;-77932.016;-139.48251;-107.6136;-123.39826;17487.945;explore_def;10;0.0;DEFEAT
29;5;841389.75;148385.12;-97112.766;-141.22026;-106.66083;-131.08592;18660.062;explore_def;10;0.47955695;DEFEAT
29;42;841389.75;1189384.1;-100427.77;-143.5045;-107.16836;-133.28818;19112.883;explore_off;10;0.507619;DEFEAT
