0;0;0.0;0.0;-20382.688;-255.0;-240.38795;-145.62187;15449.268;explore_def;12;0.0;DEFEAT
0;0;0.0;0.0;-108915.89;-255.0;-232.08485;-250.93573;18998.148;explore_def;10;0.0;DEFEAT
0;0;0.0;0.0;-142371.38;-255.0;-232.60074;-252.99643;21089.21;explore_def;10;0.7048505;DEFEAT
0;0;0.0;0.0;-136830.73;-255.0;-239.99129;-252.99477;21171.984;explore_def;10;0.5709;DEFEAT
0;0;0.0;0.0;-126079.8;-255.0;-239.7118;-252.94656;21007.531;explore_def;10;0.39898658;DEFEAT
0;0;0.0;0.0;-120049.984;-255.0;-241.59845;-252.71312;21261.717;explore_def;8;0.0;DEFEAT
0;0;0.0;0.0;-122839.88;-255.0;-235.25417;-252.99844;21456.836;explore_def;8;0.052064467;DEFEAT
0;0;0.0;0.0;-126060.44;-255.0;-235.4015;-252.99855;21053.055;explore_def;8;0.28012744;DEFEAT
0;0;0.0;0.0;-126060.44;-255.0;-235.4015;-252.99855;21053.055;explore_def;8;0.28012744;DEFEAT
0;0;0.0;0.0;-127812.67;-255.0;-235.81534;-252.99532;21150.219;explore_def;6;0.48942858;DEFEAT
0;0;0.0;0.0;-127812.67;-255.0;-235.81534;-252.99532;21150.219;explore_def;6;0.48942858;DEFEAT
0;0;0.0;0.0;-129092.734;-255.0;-236.7553;-252.9982;20781.379;explore_def;4;0.7121887;DEFEAT
0;0;0.0;0.0;-127881.08;-255.0;-234.72302;-252.99757;20745.758;explore_def;4;0.59772795;DEFEAT
0;0;0.0;0.0;-127881.08;-255.0;-234.72302;-252.99757;20745.758;explore_def;4;0.59772795;DEFEAT
0;0;0.0;0.0;-127120.14;-255.0;-234.92694;-252.99007;20863.2;explore_def;2;0.4629452;DEFEAT
