0;0;0.0;0.0;-21163.096;-255.0;-253.09587;-145.935;15064.163;explore_def;12;0.0;DEFEAT
0;0;0.0;0.0;-94153.86;-255.0;-233.09401;-243.67435;14447.979;explore_def;10;0.0;DEFEAT
0;0;0.0;0.0;-125611.875;-255.0;-238.21165;-252.99928;20932.1;explore_def;8;0.0;DEFEAT
0;0;0.0;0.0;-124603.81;-255.0;-238.8123;-252.93312;20942.422;explore_def;6;0.0;DEFEAT
0;0;0.0;0.0;-122538.836;-255.0;-230.11893;-252.59653;20739.08;explore_def;6;0.0;DEFEAT
0;0;0.0;0.0;-116968.66;-255.0;-241.91544;-252.30835;20978.316;explore_def;6;0.1517458;DEFEAT
0;0;0.0;0.0;-116968.66;-255.0;-241.91544;-252.30835;20978.316;explore_def;6;0.1517458;DEFEAT
0;0;0.0;0.0;-94784.734;-255.0;-232.26411;-252.35654;21756.477;explore_def;4;0.0;DEFEAT
0;0;0.0;0.0;-74425.81;-255.0;-243.25333;-251.44463;21682.016;explore_def;2;0.0;DEFEAT
0;0;0.0;0.0;-120297.625;-255.0;-236.09276;-252.99782;21480.355;explore_def;2;0.23989496;DEFEAT
0;0;0.0;0.0;-121322.26;-255.0;-236.93327;-252.98459;21598.98;explore_def;2;0.0;DEFEAT
0;0;0.0;0.0;-123873.74;-255.0;-237.12514;-252.99646;21261.191;explore_def;2;0.11137283;DEFEAT
0;0;0.0;0.0;-124614.42;-255.0;-238.96223;-252.8296;20871.611;explore_def;2;0.0;DEFEAT
0;0;0.0;0.0;-128144.5;-255.0;-239.30238;-252.99783;20928.32;explore_def;2;0.013569133;DEFEAT
0;0;0.0;0.0;-130627.24;-255.0;-234.76845;-252.99875;20904.684;explore_def;2;0.17841552;DEFEAT
0;0;0.0;0.0;-131134.97;-255.0;-241.67604;-252.99608;21000.777;explore_def;2;0.35104984;DEFEAT
0;0;0.0;0.0;-130118.94;-255.0;-236.43283;-252.99751;20842.168;explore_def;2;0.51118237;DEFEAT
0;0;0.0;0.0;-130145.33;-255.0;-243.22232;-252.98116;20705.059;explore_def;2;0.61906046;DEFEAT
0;0;0.0;0.0;-130894.6;-255.0;-235.60405;-252.95567;20719.352;explore_def;2;0.52901495;DEFEAT
0;0;0.0;0.0;-137411.61;-255.0;-237.27013;-252.91953;20935.453;explore_def;2;0.38877073;DEFEAT
0;0;0.0;0.0;-138881.19;-255.0;-238.5913;-252.88159;21363.162;explore_def;2;0.26522514;DEFEAT
